[
    {
        "group": "route-en",
        "values": {
            "groupName": "[route]",
            "creating": " Generating routes\n",
            "errorPublicPath": "    - Error: Path public not found",
            "errorHtAccess": "    - Error: File .htaccess not found",
            "errorHtAccessPermission": "    - Error: File .htaccess Permission denied",
            "errorInvalidJson": "    - Error: File invalid JSON:",
            "errorFileNotFound": "    - Error: file not found:"
        }
    }
]